[{
  "test": {
    "type": "oneShot",
    "repeatTime": "0"
  },
  "stopAllLorhammerTime": "0",
  "sleepBeforeCheckTime": "2m",
  "shutdownAllLorhammerTime": "0",
  "sleepAtEndTime": "0",
  "requieredLorhammer": 1,
  "maxWaitLorhammerTime": "10s",
  "init": [{
    "nsAddress": "127.0.0.1:1700",
    "nbGatewayPerLorhammer": 1,
    "nbNodePerGateway": [5, 5],
    "nbScenarioReplayLaps": 2,
    "scenarioSleepTime": ["5s", "5s"],
    "receiveTimeoutTime": "1s",
    "withJoin": false,
    "gatewaySleepTime": ["0ms", "0ms"],
    "payloads" : [
      {"value": "01B501002919000006018403131313121233", "date": 1488931200},
      {"value": "01B501002919000006018403131313121244", "date": 1488931201},
      {"value": "01B501002919000006018403131313121255", "date": 1488931202},
      {"value": "01B501002919000006018403131313121266", "date": 1488931203}
    ]
  }],
  "provisioning": {
    "type": "none"
  },
  "check": {
    "type": "prometheus",
    "config": {
      "address": "http://prometheus:9090",
      "checks": [
        {"query": "sum(lorhammer_long_request)", "resultMin": 41, "resultMax": 41, "description": "1 Pull Data + 5 join ack + (4 messages / node) * 2 laps "},
        {"query": "sum(lorhammer_durations_count)", "resultMin": 0, "resultMax": 0, "description": "nb messages"},
        {"query": "count(lorhammer_durations_count)", "resultMin": 1, "resultMax": 1, "description": "nb lorhammer"},
        {"query": "sum(lorhammer_gateway)", "resultMin": 0, "resultMax": 0, "description": "nb gateways"},
        {"query": "sum(lorhammer_node)", "resultMin": 0, "resultMax": 0, "description": "nb nodes"}
      ]
    }
  },
  "deploy": {
    "type": "none"
  }
}]